# t=0
0 0
0.01 0.997975
0.02 0.998989
0.03 0.999327
0.04 0.999497
0.05 0.999599
0.06 0.999668
0.07 0.999717
0.08 0.999754
0.09 0.999783
0.1 0.999806
0.11 0.999826
0.12 0.999842
0.13 0.999856
0.14 0.999868
0.15 0.999879
0.16 0.999888
0.17 0.999896
0.18 0.999904
0.19 0.99991
0.2 0.999917
0.21 0.999922
0.22 0.999928
0.23 0.999932
0.24 0.999937
0.25 0.999941
0.26 0.999945
0.27 0.999949
0.28 0.999952
0.29 0.999956
0.3 0.999959
0.31 0.999962
0.32 0.999965
0.33 0.999967
0.34 0.99997
0.35 0.999972
0.36 0.999975
0.37 0.999977
0.38 0.999979
0.39 0.999981
0.4 0.999983
0.41 0.999985
0.42 0.999987
0.43 0.999989
0.44 0.999991
0.45 0.999992
0.46 0.999994
0.47 0.999996
0.48 0.999997
0.49 0.999999
0.5 1
0.51 1
0.52 1
0.53 1
0.54 1.00001
0.55 1.00001
0.56 1.00001
0.57 1.00001
0.58 1.00001
0.59 1.00001
0.6 1.00001
0.61 1.00001
0.62 1.00001
0.63 1.00002
0.64 1.00002
0.65 1.00002
0.66 1.00002
0.67 1.00002
0.68 1.00002
0.69 1.00002
0.7 1.00002
0.71 1.00002
0.72 1.00002
0.73 1.00002
0.74 1.00002
0.75 1.00002
0.76 1.00002
0.77 1.00003
0.78 1.00003
0.79 1.00003
0.8 1.00003
0.81 1.00003
0.82 1.00003
0.83 1.00003
0.84 1.00003
0.85 1.00003
0.86 1.00003
0.87 1.00003
0.88 1.00003
0.89 1.00003
0.9 1.00003
0.91 1.00003
0.92 1.00003
0.93 1.00003
0.94 1.00003
0.95 1.00003
0.96 1.00003
0.97 1.00003
0.98 1.00003
0.99 1.00003
1 1.00003

# t=0.05
0 0
0.01 0.0252271
0.02 0.050429
0.03 0.0755806
0.04 0.100657
0.05 0.125633
0.06 0.150485
0.07 0.175187
0.08 0.199718
0.09 0.224053
0.1 0.24817
0.11 0.272048
0.12 0.295664
0.13 0.318998
0.14 0.342031
0.15 0.364744
0.16 0.387118
0.17 0.409138
0.18 0.430786
0.19 0.452049
0.2 0.472911
0.21 0.49336
0.22 0.513384
0.23 0.532972
0.24 0.552115
0.25 0.570805
0.26 0.589032
0.27 0.606792
0.28 0.624079
0.29 0.640889
0.3 0.657218
0.31 0.673065
0.32 0.688428
0.33 0.703307
0.34 0.717703
0.35 0.731618
0.36 0.745055
0.37 0.758016
0.38 0.770507
0.39 0.782531
0.4 0.794096
0.41 0.805208
0.42 0.815873
0.43 0.8261
0.44 0.835896
0.45 0.84527
0.46 0.854232
0.47 0.862791
0.48 0.870957
0.49 0.87874
0.5 0.886152
0.51 0.893201
0.52 0.8999
0.53 0.90626
0.54 0.912291
0.55 0.918005
0.56 0.923413
0.57 0.928527
0.58 0.933357
0.59 0.937915
0.6 0.942211
0.61 0.946257
0.62 0.950063
0.63 0.95364
0.64 0.956998
0.65 0.960148
0.66 0.963099
0.67 0.96586
0.68 0.968442
0.69 0.970854
0.7 0.973104
0.71 0.975201
0.72 0.977152
0.73 0.978967
0.74 0.980653
0.75 0.982217
0.76 0.983665
0.77 0.985006
0.78 0.986245
0.79 0.987387
0.8 0.98844
0.81 0.989408
0.82 0.990297
0.83 0.991112
0.84 0.991856
0.85 0.992534
0.86 0.993151
0.87 0.99371
0.88 0.994213
0.89 0.994666
0.9 0.995069
0.91 0.995427
0.92 0.99574
0.93 0.996012
0.94 0.996244
0.95 0.996438
0.96 0.996595
0.97 0.996715
0.98 0.996801
0.99 0.996852
1 0.996869

# t=0.1
0 0
0.01 0.0178381
0.02 0.0356673
0.03 0.0534787
0.04 0.0712633
0.05 0.0890123
0.06 0.106717
0.07 0.124368
0.08 0.141958
0.09 0.159477
0.1 0.176918
0.11 0.194271
0.12 0.211529
0.13 0.228684
0.14 0.245727
0.15 0.262651
0.16 0.279448
0.17 0.296111
0.18 0.312632
0.19 0.329005
0.2 0.345223
0.21 0.361279
0.22 0.377167
0.23 0.39288
0.24 0.408412
0.25 0.423759
0.26 0.438915
0.27 0.453873
0.28 0.46863
0.29 0.483181
0.3 0.497521
0.31 0.511647
0.32 0.525554
0.33 0.539238
0.34 0.552697
0.35 0.565927
0.36 0.578926
0.37 0.591691
0.38 0.60422
0.39 0.61651
0.4 0.62856
0.41 0.640369
0.42 0.651935
0.43 0.663257
0.44 0.674334
0.45 0.685167
0.46 0.695754
0.47 0.706096
0.48 0.716192
0.49 0.726044
0.5 0.735651
0.51 0.745015
0.52 0.754136
0.53 0.763016
0.54 0.771655
0.55 0.780056
0.56 0.78822
0.57 0.796149
0.58 0.803844
0.59 0.811308
0.6 0.818542
0.61 0.82555
0.62 0.832333
0.63 0.838895
0.64 0.845236
0.65 0.851361
0.66 0.857271
0.67 0.86297
0.68 0.86846
0.69 0.873744
0.7 0.878825
0.71 0.883705
0.72 0.888388
0.73 0.892876
0.74 0.897172
0.75 0.901279
0.76 0.905199
0.77 0.908936
0.78 0.912492
0.79 0.91587
0.8 0.919071
0.81 0.9221
0.82 0.924957
0.83 0.927646
0.84 0.930168
0.85 0.932527
0.86 0.934723
0.87 0.936759
0.88 0.938636
0.89 0.940357
0.9 0.941922
0.91 0.943334
0.92 0.944594
0.93 0.945703
0.94 0.946661
0.95 0.947471
0.96 0.948132
0.97 0.948646
0.98 0.949012
0.99 0.949232
1 0.949305

# t=0.15
0 0
0.01 0.0145294
0.02 0.0290538
0.03 0.0435682
0.04 0.0580676
0.05 0.072547
0.06 0.0870014
0.07 0.101426
0.08 0.115816
0.09 0.130166
0.1 0.144471
0.11 0.158728
0.12 0.17293
0.13 0.187073
0.14 0.201153
0.15 0.215164
0.16 0.229103
0.17 0.242965
0.18 0.256745
0.19 0.270439
0.2 0.284043
0.21 0.297553
0.22 0.310964
0.23 0.324272
0.24 0.337474
0.25 0.350565
0.26 0.363542
0.27 0.376401
0.28 0.389138
0.29 0.40175
0.3 0.414234
0.31 0.426585
0.32 0.438802
0.33 0.45088
0.34 0.462817
0.35 0.47461
0.36 0.486256
0.37 0.497752
0.38 0.509096
0.39 0.520284
0.4 0.531316
0.41 0.542188
0.42 0.552898
0.43 0.563445
0.44 0.573825
0.45 0.584038
0.46 0.594081
0.47 0.603953
0.48 0.613651
0.49 0.623176
0.5 0.632525
0.51 0.641696
0.52 0.650689
0.53 0.659503
0.54 0.668136
0.55 0.676588
0.56 0.684857
0.57 0.692943
0.58 0.700844
0.59 0.708561
0.6 0.716093
0.61 0.723439
0.62 0.730599
0.63 0.737572
0.64 0.744358
0.65 0.750957
0.66 0.757369
0.67 0.763592
0.68 0.769628
0.69 0.775476
0.7 0.781136
0.71 0.786608
0.72 0.791892
0.73 0.796989
0.74 0.801897
0.75 0.806618
0.76 0.811152
0.77 0.815498
0.78 0.819656
0.79 0.823628
0.8 0.827414
0.81 0.831012
0.82 0.834424
0.83 0.837651
0.84 0.840691
0.85 0.843546
0.86 0.846215
0.87 0.848699
0.88 0.850998
0.89 0.853112
0.9 0.855042
0.91 0.856788
0.92 0.858349
0.93 0.859726
0.94 0.860919
0.95 0.861928
0.96 0.862754
0.97 0.863396
0.98 0.863855
0.99 0.86413
1 0.864222

# t=0.2
0 0
0.01 0.0124451
0.02 0.0248866
0.03 0.0373211
0.04 0.0497449
0.05 0.0621547
0.06 0.0745467
0.07 0.0869177
0.08 0.099264
0.09 0.111582
0.1 0.123869
0.11 0.13612
0.12 0.148333
0.13 0.160504
0.14 0.17263
0.15 0.184708
0.16 0.196733
0.17 0.208703
0.18 0.220614
0.19 0.232464
0.2 0.244248
0.21 0.255964
0.22 0.267609
0.23 0.279179
0.24 0.290672
0.25 0.302084
0.26 0.313412
0.27 0.324654
0.28 0.335806
0.29 0.346866
0.3 0.35783
0.31 0.368697
0.32 0.379463
0.33 0.390125
0.34 0.400681
0.35 0.411128
0.36 0.421464
0.37 0.431687
0.38 0.441793
0.39 0.45178
0.4 0.461647
0.41 0.47139
0.42 0.481007
0.43 0.490497
0.44 0.499857
0.45 0.509085
0.46 0.518179
0.47 0.527137
0.48 0.535957
0.49 0.544637
0.5 0.553176
0.51 0.561571
0.52 0.569821
0.53 0.577924
0.54 0.585878
0.55 0.593683
0.56 0.601335
0.57 0.608835
0.58 0.61618
0.59 0.623369
0.6 0.630401
0.61 0.637274
0.62 0.643988
0.63 0.65054
0.64 0.65693
0.65 0.663157
0.66 0.66922
0.67 0.675117
0.68 0.680847
0.69 0.686411
0.7 0.691806
0.71 0.697031
0.72 0.702087
0.73 0.706972
0.74 0.711686
0.75 0.716227
0.76 0.720596
0.77 0.72479
0.78 0.728811
0.79 0.732657
0.8 0.736327
0.81 0.739822
0.82 0.74314
0.83 0.746281
0.84 0.749245
0.85 0.752032
0.86 0.75464
0.87 0.75707
0.88 0.759321
0.89 0.761393
0.9 0.763286
0.91 0.765
0.92 0.766533
0.93 0.767887
0.94 0.76906
0.95 0.770053
0.96 0.770866
0.97 0.771499
0.98 0.77195
0.99 0.772221
1 0.772312

# t=0.25
0 0
0.01 0.01087
0.02 0.0217371
0.03 0.0325986
0.04 0.0434516
0.05 0.0542932
0.06 0.0651207
0.07 0.0759312
0.08 0.086722
0.09 0.0974901
0.1 0.108233
0.11 0.118947
0.12 0.129631
0.13 0.140281
0.14 0.150894
0.15 0.161468
0.16 0.172001
0.17 0.182488
0.18 0.192928
0.19 0.203319
0.2 0.213656
0.21 0.223938
0.22 0.234162
0.23 0.244326
0.24 0.254426
0.25 0.264461
0.26 0.274427
0.27 0.284323
0.28 0.294145
0.29 0.303892
0.3 0.313561
0.31 0.323148
0.32 0.332653
0.33 0.342073
0.34 0.351405
0.35 0.360647
0.36 0.369797
0.37 0.378852
0.38 0.387811
0.39 0.396671
0.4 0.40543
0.41 0.414085
0.42 0.422636
0.43 0.431079
0.44 0.439413
0.45 0.447636
0.46 0.455745
0.47 0.463739
0.48 0.471617
0.49 0.479375
0.5 0.487013
0.51 0.494528
0.52 0.501919
0.53 0.509184
0.54 0.516322
0.55 0.52333
0.56 0.530208
0.57 0.536953
0.58 0.543564
0.59 0.55004
0.6 0.556379
0.61 0.562579
0.62 0.56864
0.63 0.57456
0.64 0.580338
0.65 0.585972
0.66 0.591461
0.67 0.596805
0.68 0.602001
0.69 0.607048
0.7 0.611947
0.71 0.616694
0.72 0.621291
0.73 0.625734
0.74 0.630025
0.75 0.634161
0.76 0.638141
0.77 0.641966
0.78 0.645634
0.79 0.649144
0.8 0.652496
0.81 0.655689
0.82 0.658722
0.83 0.661594
0.84 0.664306
0.85 0.666856
0.86 0.669244
0.87 0.671469
0.88 0.673532
0.89 0.675431
0.9 0.677166
0.91 0.678737
0.92 0.680143
0.93 0.681385
0.94 0.682462
0.95 0.683373
0.96 0.684119
0.97 0.684699
0.98 0.685114
0.99 0.685363
1 0.685446

# t=0.3
0 0
0.01 0.00956535
0.02 0.0191283
0.03 0.0286864
0.04 0.0382373
0.05 0.0477785
0.06 0.0573078
0.07 0.0668225
0.08 0.0763205
0.09 0.0857992
0.1 0.0952563
0.11 0.104689
0.12 0.114096
0.13 0.123474
0.14 0.132821
0.15 0.142135
0.16 0.151412
0.17 0.160652
0.18 0.169851
0.19 0.179008
0.2 0.188119
0.21 0.197184
0.22 0.206198
0.23 0.215161
0.24 0.22407
0.25 0.232923
0.26 0.241717
0.27 0.25045
0.28 0.259121
0.29 0.267727
0.3 0.276266
0.31 0.284735
0.32 0.293133
0.33 0.301458
0.34 0.309707
0.35 0.317879
0.36 0.325971
0.37 0.333982
0.38 0.341909
0.39 0.349751
0.4 0.357505
0.41 0.365171
0.42 0.372745
0.43 0.380226
0.44 0.387613
0.45 0.394903
0.46 0.402094
0.47 0.409186
0.48 0.416175
0.49 0.423062
0.5 0.429843
0.51 0.436517
0.52 0.443082
0.53 0.449538
0.54 0.455882
0.55 0.462113
0.56 0.46823
0.57 0.47423
0.58 0.480113
0.59 0.485877
0.6 0.491521
0.61 0.497044
0.62 0.502443
0.63 0.507718
0.64 0.512868
0.65 0.517891
0.66 0.522786
0.67 0.527552
0.68 0.532188
0.69 0.536692
0.7 0.541065
0.71 0.545304
0.72 0.549409
0.73 0.553378
0.74 0.557211
0.75 0.560907
0.76 0.564465
0.77 0.567885
0.78 0.571164
0.79 0.574304
0.8 0.577302
0.81 0.580158
0.82 0.582872
0.83 0.585443
0.84 0.58787
0.85 0.590153
0.86 0.592291
0.87 0.594284
0.88 0.596131
0.89 0.597831
0.9 0.599386
0.91 0.600793
0.92 0.602053
0.93 0.603165
0.94 0.60413
0.95 0.604947
0.96 0.605615
0.97 0.606135
0.98 0.606507
0.99 0.606729
1 0.606804

# t=0.35
0 0
0.01 0.00844098
0.02 0.0168799
0.03 0.0253146
0.04 0.0337429
0.05 0.0421629
0.06 0.0505725
0.07 0.0589694
0.08 0.0673517
0.09 0.0757172
0.1 0.0840639
0.11 0.0923897
0.12 0.100693
0.13 0.10897
0.14 0.117221
0.15 0.125443
0.16 0.133633
0.17 0.14179
0.18 0.149912
0.19 0.157997
0.2 0.166042
0.21 0.174046
0.22 0.182007
0.23 0.189923
0.24 0.197792
0.25 0.205611
0.26 0.213379
0.27 0.221095
0.28 0.228755
0.29 0.236359
0.3 0.243904
0.31 0.251388
0.32 0.258811
0.33 0.266169
0.34 0.27346
0.35 0.280685
0.36 0.287839
0.37 0.294922
0.38 0.301932
0.39 0.308867
0.4 0.315726
0.41 0.322506
0.42 0.329207
0.43 0.335826
0.44 0.342361
0.45 0.348812
0.46 0.355177
0.47 0.361454
0.48 0.367641
0.49 0.373737
0.5 0.379741
0.51 0.385651
0.52 0.391465
0.53 0.397183
0.54 0.402802
0.55 0.408322
0.56 0.413741
0.57 0.419057
0.58 0.42427
0.59 0.429378
0.6 0.434381
0.61 0.439276
0.62 0.444062
0.63 0.448739
0.64 0.453305
0.65 0.457759
0.66 0.4621
0.67 0.466327
0.68 0.470439
0.69 0.474435
0.7 0.478314
0.71 0.482075
0.72 0.485717
0.73 0.489239
0.74 0.492641
0.75 0.495922
0.76 0.49908
0.77 0.502115
0.78 0.505026
0.79 0.507813
0.8 0.510475
0.81 0.513011
0.82 0.515421
0.83 0.517704
0.84 0.519859
0.85 0.521886
0.86 0.523785
0.87 0.525555
0.88 0.527196
0.89 0.528706
0.9 0.530087
0.91 0.531337
0.92 0.532456
0.93 0.533444
0.94 0.534301
0.95 0.535027
0.96 0.535621
0.97 0.536083
0.98 0.536413
0.99 0.536611
1 0.536677

# t=0.4
0 0
0.01 0.00745662
0.02 0.0149114
0.03 0.0223625
0.04 0.029808
0.05 0.0372462
0.06 0.0446752
0.07 0.0520931
0.08 0.0594981
0.09 0.0668884
0.1 0.0742621
0.11 0.0816175
0.12 0.0889527
0.13 0.0962658
0.14 0.103555
0.15 0.110819
0.16 0.118055
0.17 0.125262
0.18 0.132438
0.19 0.139582
0.2 0.146691
0.21 0.153763
0.22 0.160798
0.23 0.167792
0.24 0.174745
0.25 0.181655
0.26 0.188521
0.27 0.195339
0.28 0.202109
0.29 0.208829
0.3 0.215498
0.31 0.222113
0.32 0.228673
0.33 0.235177
0.34 0.241623
0.35 0.248009
0.36 0.254333
0.37 0.260595
0.38 0.266792
0.39 0.272923
0.4 0.278987
0.41 0.284982
0.42 0.290907
0.43 0.29676
0.44 0.302539
0.45 0.308243
0.46 0.313872
0.47 0.319423
0.48 0.324895
0.49 0.330286
0.5 0.335597
0.51 0.340824
0.52 0.345967
0.53 0.351025
0.54 0.355996
0.55 0.360879
0.56 0.365673
0.57 0.370376
0.58 0.374989
0.59 0.379508
0.6 0.383934
0.61 0.388266
0.62 0.392501
0.63 0.396639
0.64 0.40068
0.65 0.404622
0.66 0.408464
0.67 0.412205
0.68 0.415844
0.69 0.419381
0.7 0.422815
0.71 0.426144
0.72 0.429368
0.73 0.432486
0.74 0.435497
0.75 0.438401
0.76 0.441197
0.77 0.443884
0.78 0.446462
0.79 0.448929
0.8 0.451286
0.81 0.453531
0.82 0.455665
0.83 0.457686
0.84 0.459595
0.85 0.46139
0.86 0.463071
0.87 0.464638
0.88 0.466091
0.89 0.467429
0.9 0.468651
0.91 0.469758
0.92 0.47075
0.93 0.471625
0.94 0.472384
0.95 0.473026
0.96 0.473552
0.97 0.473961
0.98 0.474254
0.99 0.474429
1 0.474487

# t=0.45
0 0
0.01 0.00658964
0.02 0.0131777
0.03 0.0197624
0.04 0.0263423
0.05 0.0329157
0.06 0.0394809
0.07 0.0460364
0.08 0.0525805
0.09 0.0591117
0.1 0.0656282
0.11 0.0721285
0.12 0.078611
0.13 0.0850741
0.14 0.0915162
0.15 0.0979357
0.16 0.104331
0.17 0.1107
0.18 0.117043
0.19 0.123356
0.2 0.129639
0.21 0.135889
0.22 0.142107
0.23 0.148289
0.24 0.154434
0.25 0.160542
0.26 0.166609
0.27 0.172636
0.28 0.17862
0.29 0.18456
0.3 0.190454
0.31 0.196301
0.32 0.2021
0.33 0.207849
0.34 0.213546
0.35 0.219191
0.36 0.224782
0.37 0.230317
0.38 0.235795
0.39 0.241216
0.4 0.246576
0.41 0.251876
0.42 0.257113
0.43 0.262287
0.44 0.267397
0.45 0.27244
0.46 0.277416
0.47 0.282323
0.48 0.287161
0.49 0.291928
0.5 0.296623
0.51 0.301245
0.52 0.305792
0.53 0.310264
0.54 0.314659
0.55 0.318977
0.56 0.323216
0.57 0.327375
0.58 0.331453
0.59 0.33545
0.6 0.339363
0.61 0.343193
0.62 0.346939
0.63 0.350598
0.64 0.354172
0.65 0.357658
0.66 0.361055
0.67 0.364364
0.68 0.367582
0.69 0.37071
0.7 0.373746
0.71 0.376691
0.72 0.379542
0.73 0.3823
0.74 0.384963
0.75 0.387531
0.76 0.390004
0.77 0.392381
0.78 0.39466
0.79 0.396843
0.8 0.398927
0.81 0.400913
0.82 0.4028
0.83 0.404588
0.84 0.406276
0.85 0.407864
0.86 0.409351
0.87 0.410738
0.88 0.412023
0.89 0.413206
0.9 0.414287
0.91 0.415266
0.92 0.416143
0.93 0.416917
0.94 0.417589
0.95 0.418157
0.96 0.418622
0.97 0.418984
0.98 0.419243
0.99 0.419398
1 0.419449

# t=0.5
0 0
0.01 0.00582432
0.02 0.0116472
0.03 0.0174672
0.04 0.0232829
0.05 0.0290929
0.06 0.0348956
0.07 0.0406898
0.08 0.0464739
0.09 0.0522465
0.1 0.0580063
0.11 0.0637517
0.12 0.0694814
0.13 0.0751939
0.14 0.0808879
0.15 0.0865619
0.16 0.0922146
0.17 0.0978444
0.18 0.10345
0.19 0.10903
0.2 0.114584
0.21 0.120109
0.22 0.125604
0.23 0.131068
0.24 0.1365
0.25 0.141899
0.26 0.147262
0.27 0.152589
0.28 0.157878
0.29 0.163129
0.3 0.168339
0.31 0.173507
0.32 0.178633
0.33 0.183714
0.34 0.188751
0.35 0.19374
0.36 0.198682
0.37 0.203575
0.38 0.208418
0.39 0.213209
0.4 0.217947
0.41 0.222632
0.42 0.227262
0.43 0.231836
0.44 0.236352
0.45 0.24081
0.46 0.245209
0.47 0.249547
0.48 0.253824
0.49 0.258038
0.5 0.262188
0.51 0.266274
0.52 0.270294
0.53 0.274247
0.54 0.278133
0.55 0.28195
0.56 0.285697
0.57 0.289374
0.58 0.292979
0.59 0.296512
0.6 0.299972
0.61 0.303358
0.62 0.306669
0.63 0.309905
0.64 0.313064
0.65 0.316146
0.66 0.319149
0.67 0.322074
0.68 0.32492
0.69 0.327685
0.7 0.33037
0.71 0.332973
0.72 0.335494
0.73 0.337932
0.74 0.340286
0.75 0.342557
0.76 0.344743
0.77 0.346845
0.78 0.34886
0.79 0.35079
0.8 0.352633
0.81 0.354389
0.82 0.356057
0.83 0.357638
0.84 0.35913
0.85 0.360534
0.86 0.361849
0.87 0.363075
0.88 0.364211
0.89 0.365257
0.9 0.366213
0.91 0.367079
0.92 0.367854
0.93 0.368539
0.94 0.369132
0.95 0.369635
0.96 0.370046
0.97 0.370366
0.98 0.370594
0.99 0.370732
1 0.370777

# t=0.55
0 0
0.01 0.00514816
0.02 0.0102951
0.03 0.0154394
0.04 0.0205799
0.05 0.0257154
0.06 0.0308445
0.07 0.035966
0.08 0.0410787
0.09 0.0461812
0.1 0.0512723
0.11 0.0563507
0.12 0.0614152
0.13 0.0664646
0.14 0.0714976
0.15 0.0765129
0.16 0.0815094
0.17 0.0864857
0.18 0.0914407
0.19 0.0963732
0.2 0.101282
0.21 0.106165
0.22 0.111023
0.23 0.115853
0.24 0.120654
0.25 0.125426
0.26 0.130167
0.27 0.134876
0.28 0.139551
0.29 0.144192
0.3 0.148797
0.31 0.153366
0.32 0.157897
0.33 0.162388
0.34 0.16684
0.35 0.171251
0.36 0.175619
0.37 0.179944
0.38 0.184225
0.39 0.18846
0.4 0.192648
0.41 0.196789
0.42 0.200882
0.43 0.204925
0.44 0.208917
0.45 0.212858
0.46 0.216746
0.47 0.220581
0.48 0.224361
0.49 0.228087
0.5 0.231755
0.51 0.235367
0.52 0.23892
0.53 0.242415
0.54 0.24585
0.55 0.249224
0.56 0.252536
0.57 0.255786
0.58 0.258974
0.59 0.262097
0.6 0.265155
0.61 0.268149
0.62 0.271076
0.63 0.273936
0.64 0.276728
0.65 0.279452
0.66 0.282108
0.67 0.284693
0.68 0.287209
0.69 0.289653
0.7 0.292026
0.71 0.294328
0.72 0.296556
0.73 0.298711
0.74 0.300793
0.75 0.3028
0.76 0.304733
0.77 0.30659
0.78 0.308372
0.79 0.310078
0.8 0.311707
0.81 0.313259
0.82 0.314734
0.83 0.316132
0.84 0.317451
0.85 0.318692
0.86 0.319854
0.87 0.320938
0.88 0.321942
0.89 0.322867
0.9 0.323712
0.91 0.324478
0.92 0.325163
0.93 0.325768
0.94 0.326293
0.95 0.326737
0.96 0.327101
0.97 0.327383
0.98 0.327586
0.99 0.327707
1 0.327747

# t=0.6
0 0
0.01 0.00455059
0.02 0.00910006
0.03 0.0136473
0.04 0.0181911
0.05 0.0227305
0.06 0.0272643
0.07 0.0317913
0.08 0.0363105
0.09 0.0408207
0.1 0.0453209
0.11 0.0498099
0.12 0.0542865
0.13 0.0587498
0.14 0.0631986
0.15 0.0676318
0.16 0.0720483
0.17 0.0764471
0.18 0.0808269
0.19 0.0851869
0.2 0.0895258
0.21 0.0938426
0.22 0.0981362
0.23 0.102406
0.24 0.10665
0.25 0.110868
0.26 0.115058
0.27 0.11922
0.28 0.123353
0.29 0.127455
0.3 0.131526
0.31 0.135564
0.32 0.139569
0.33 0.14354
0.34 0.147475
0.35 0.151374
0.36 0.155235
0.37 0.159058
0.38 0.162842
0.39 0.166585
0.4 0.170288
0.41 0.173948
0.42 0.177566
0.43 0.181139
0.44 0.184668
0.45 0.188152
0.46 0.191589
0.47 0.194979
0.48 0.19832
0.49 0.201613
0.5 0.204856
0.51 0.208049
0.52 0.21119
0.53 0.214279
0.54 0.217315
0.55 0.220297
0.56 0.223225
0.57 0.226098
0.58 0.228916
0.59 0.231677
0.6 0.23438
0.61 0.237026
0.62 0.239613
0.63 0.242142
0.64 0.24461
0.65 0.247018
0.66 0.249365
0.67 0.251651
0.68 0.253874
0.69 0.256035
0.7 0.258133
0.71 0.260167
0.72 0.262137
0.73 0.264042
0.74 0.265882
0.75 0.267657
0.76 0.269365
0.77 0.271007
0.78 0.272582
0.79 0.27409
0.8 0.27553
0.81 0.276902
0.82 0.278206
0.83 0.279441
0.84 0.280607
0.85 0.281704
0.86 0.282732
0.87 0.28369
0.88 0.284577
0.89 0.285395
0.9 0.286142
0.91 0.286819
0.92 0.287425
0.93 0.287959
0.94 0.288423
0.95 0.288816
0.96 0.289137
0.97 0.289387
0.98 0.289566
0.99 0.289673
1 0.289709

# t=0.65
0 0
0.01 0.00402242
0.02 0.00804384
0.03 0.0120633
0.04 0.0160797
0.05 0.0200922
0.06 0.0240998
0.07 0.0281014
0.08 0.032096
0.09 0.0360828
0.1 0.0400606
0.11 0.0440286
0.12 0.0479856
0.13 0.0519309
0.14 0.0558633
0.15 0.059782
0.16 0.0636859
0.17 0.0675741
0.18 0.0714456
0.19 0.0752995
0.2 0.0791348
0.21 0.0829506
0.22 0.0867459
0.23 0.0905198
0.24 0.0942713
0.25 0.0979997
0.26 0.101704
0.27 0.105383
0.28 0.109036
0.29 0.112662
0.3 0.11626
0.31 0.11983
0.32 0.12337
0.33 0.12688
0.34 0.130358
0.35 0.133804
0.36 0.137217
0.37 0.140597
0.38 0.143941
0.39 0.14725
0.4 0.150523
0.41 0.153759
0.42 0.156956
0.43 0.160115
0.44 0.163235
0.45 0.166314
0.46 0.169352
0.47 0.172349
0.48 0.175302
0.49 0.178213
0.5 0.18108
0.51 0.183901
0.52 0.186678
0.53 0.189408
0.54 0.192092
0.55 0.194729
0.56 0.197317
0.57 0.199857
0.58 0.202347
0.59 0.204787
0.6 0.207177
0.61 0.209516
0.62 0.211803
0.63 0.214038
0.64 0.21622
0.65 0.218348
0.66 0.220423
0.67 0.222443
0.68 0.224409
0.69 0.226319
0.7 0.228173
0.71 0.229971
0.72 0.231712
0.73 0.233397
0.74 0.235023
0.75 0.236592
0.76 0.238102
0.77 0.239553
0.78 0.240945
0.79 0.242278
0.8 0.243551
0.81 0.244764
0.82 0.245917
0.83 0.247008
0.84 0.248039
0.85 0.249009
0.86 0.249917
0.87 0.250764
0.88 0.251549
0.89 0.252271
0.9 0.252932
0.91 0.25353
0.92 0.254065
0.93 0.254538
0.94 0.254948
0.95 0.255295
0.96 0.255579
0.97 0.2558
0.98 0.255958
0.99 0.256053
1 0.256085

# t=0.7
0 0
0.01 0.00355556
0.02 0.00711023
0.03 0.0106632
0.04 0.0142135
0.05 0.0177602
0.06 0.0213026
0.07 0.0248398
0.08 0.0283708
0.09 0.0318948
0.1 0.035411
0.11 0.0389184
0.12 0.0424162
0.13 0.0459035
0.14 0.0493796
0.15 0.0528434
0.16 0.0562942
0.17 0.0597311
0.18 0.0631533
0.19 0.0665598
0.2 0.06995
0.21 0.0733229
0.22 0.0766777
0.23 0.0800136
0.24 0.0833298
0.25 0.0866254
0.26 0.0898996
0.27 0.0931516
0.28 0.0963807
0.29 0.0995859
0.3 0.102767
0.31 0.105922
0.32 0.109051
0.33 0.112153
0.34 0.115228
0.35 0.118274
0.36 0.121291
0.37 0.124278
0.38 0.127235
0.39 0.13016
0.4 0.133053
0.41 0.135913
0.42 0.138739
0.43 0.141532
0.44 0.144289
0.45 0.147011
0.46 0.149696
0.47 0.152345
0.48 0.154956
0.49 0.157529
0.5 0.160063
0.51 0.162557
0.52 0.165011
0.53 0.167425
0.54 0.169797
0.55 0.172128
0.56 0.174416
0.57 0.17666
0.58 0.178862
0.59 0.181019
0.6 0.183131
0.61 0.185199
0.62 0.18722
0.63 0.189196
0.64 0.191124
0.65 0.193006
0.66 0.19484
0.67 0.196626
0.68 0.198363
0.69 0.200052
0.7 0.201691
0.71 0.20328
0.72 0.204819
0.73 0.206308
0.74 0.207745
0.75 0.209132
0.76 0.210467
0.77 0.21175
0.78 0.21298
0.79 0.214158
0.8 0.215284
0.81 0.216356
0.82 0.217375
0.83 0.21834
0.84 0.219251
0.85 0.220108
0.86 0.220911
0.87 0.22166
0.88 0.222353
0.89 0.222992
0.9 0.223576
0.91 0.224104
0.92 0.224578
0.93 0.224996
0.94 0.225358
0.95 0.225665
0.96 0.225916
0.97 0.226111
0.98 0.226251
0.99 0.226335
1 0.226363

# t=0.75
0 0
0.01 0.00314288
0.02 0.00628499
0.03 0.00942555
0.04 0.0125638
0.05 0.0156989
0.06 0.0188302
0.07 0.0219568
0.08 0.025078
0.09 0.028193
0.1 0.031301
0.11 0.0344014
0.12 0.0374932
0.13 0.0405758
0.14 0.0436484
0.15 0.0467102
0.16 0.0497605
0.17 0.0527985
0.18 0.0558234
0.19 0.0588346
0.2 0.0618313
0.21 0.0648128
0.22 0.0677782
0.23 0.0707269
0.24 0.0736582
0.25 0.0765713
0.26 0.0794655
0.27 0.0823401
0.28 0.0851943
0.29 0.0880276
0.3 0.0908391
0.31 0.0936283
0.32 0.0963943
0.33 0.0991365
0.34 0.101854
0.35 0.104547
0.36 0.107214
0.37 0.109854
0.38 0.112467
0.39 0.115053
0.4 0.11761
0.41 0.120138
0.42 0.122637
0.43 0.125105
0.44 0.127542
0.45 0.129948
0.46 0.132322
0.47 0.134663
0.48 0.136971
0.49 0.139245
0.5 0.141485
0.51 0.14369
0.52 0.14586
0.53 0.147993
0.54 0.15009
0.55 0.15215
0.56 0.154172
0.57 0.156157
0.58 0.158102
0.59 0.160009
0.6 0.161876
0.61 0.163704
0.62 0.165491
0.63 0.167237
0.64 0.168942
0.65 0.170605
0.66 0.172226
0.67 0.173805
0.68 0.17534
0.69 0.176833
0.7 0.178282
0.71 0.179687
0.72 0.181047
0.73 0.182363
0.74 0.183634
0.75 0.184859
0.76 0.186039
0.77 0.187173
0.78 0.188261
0.79 0.189303
0.8 0.190297
0.81 0.191245
0.82 0.192145
0.83 0.192999
0.84 0.193804
0.85 0.194562
0.86 0.195271
0.87 0.195933
0.88 0.196546
0.89 0.197111
0.9 0.197627
0.91 0.198094
0.92 0.198513
0.93 0.198882
0.94 0.199202
0.95 0.199473
0.96 0.199695
0.97 0.199868
0.98 0.199992
0.99 0.200066
1 0.20009

# t=0.8
0 0
0.01 0.00277811
0.02 0.00555553
0.03 0.00833158
0.04 0.0111056
0.05 0.0138768
0.06 0.0166447
0.07 0.0194084
0.08 0.0221673
0.09 0.0249208
0.1 0.0276681
0.11 0.0304086
0.12 0.0331416
0.13 0.0358664
0.14 0.0385824
0.15 0.0412888
0.16 0.0439851
0.17 0.0466705
0.18 0.0493444
0.19 0.0520061
0.2 0.054655
0.21 0.0572904
0.22 0.0599116
0.23 0.0625181
0.24 0.0651091
0.25 0.0676841
0.26 0.0702424
0.27 0.0727834
0.28 0.0753064
0.29 0.0778108
0.3 0.080296
0.31 0.0827614
0.32 0.0852064
0.33 0.0876304
0.34 0.0900327
0.35 0.0924128
0.36 0.0947702
0.37 0.0971041
0.38 0.0994141
0.39 0.1017
0.4 0.10396
0.41 0.106195
0.42 0.108403
0.43 0.110585
0.44 0.112739
0.45 0.114866
0.46 0.116964
0.47 0.119034
0.48 0.121074
0.49 0.123084
0.5 0.125064
0.51 0.127013
0.52 0.128931
0.53 0.130816
0.54 0.13267
0.55 0.134491
0.56 0.136278
0.57 0.138033
0.58 0.139752
0.59 0.141438
0.6 0.143089
0.61 0.144704
0.62 0.146283
0.63 0.147827
0.64 0.149334
0.65 0.150804
0.66 0.152237
0.67 0.153632
0.68 0.15499
0.69 0.156309
0.7 0.15759
0.71 0.158832
0.72 0.160034
0.73 0.161197
0.74 0.162321
0.75 0.163404
0.76 0.164447
0.77 0.165449
0.78 0.166411
0.79 0.167331
0.8 0.168211
0.81 0.169048
0.82 0.169844
0.83 0.170599
0.84 0.171311
0.85 0.17198
0.86 0.172608
0.87 0.173192
0.88 0.173734
0.89 0.174233
0.9 0.17469
0.91 0.175103
0.92 0.175472
0.93 0.175799
0.94 0.176082
0.95 0.176322
0.96 0.176518
0.97 0.176671
0.98 0.17678
0.99 0.176845
1 0.176867

# t=0.85
0 0
0.01 0.00245567
0.02 0.00491074
0.03 0.00736459
0.04 0.00981663
0.05 0.0122662
0.06 0.0147128
0.07 0.0171558
0.08 0.0195945
0.09 0.0220284
0.1 0.0244569
0.11 0.0268793
0.12 0.0292951
0.13 0.0317036
0.14 0.0341044
0.15 0.0364967
0.16 0.03888
0.17 0.0412537
0.18 0.0436173
0.19 0.0459701
0.2 0.0483115
0.21 0.050641
0.22 0.0529581
0.23 0.055262
0.24 0.0575523
0.25 0.0598285
0.26 0.0620898
0.27 0.0643359
0.28 0.0665661
0.29 0.0687798
0.3 0.0709766
0.31 0.0731558
0.32 0.075317
0.33 0.0774597
0.34 0.0795832
0.35 0.0816871
0.36 0.0837708
0.37 0.0858339
0.38 0.0878757
0.39 0.0898959
0.4 0.091894
0.41 0.0938693
0.42 0.0958215
0.43 0.09775
0.44 0.0996544
0.45 0.101534
0.46 0.103389
0.47 0.105218
0.48 0.107022
0.49 0.108799
0.5 0.110549
0.51 0.112271
0.52 0.113966
0.53 0.115633
0.54 0.117272
0.55 0.118881
0.56 0.120462
0.57 0.122012
0.58 0.123532
0.59 0.125022
0.6 0.126481
0.61 0.127909
0.62 0.129305
0.63 0.13067
0.64 0.132002
0.65 0.133301
0.66 0.134568
0.67 0.135801
0.68 0.137001
0.69 0.138167
0.7 0.139299
0.71 0.140397
0.72 0.14146
0.73 0.142488
0.74 0.143481
0.75 0.144439
0.76 0.145361
0.77 0.146247
0.78 0.147097
0.79 0.14791
0.8 0.148688
0.81 0.149428
0.82 0.150132
0.83 0.150798
0.84 0.151428
0.85 0.15202
0.86 0.152574
0.87 0.153091
0.88 0.15357
0.89 0.154011
0.9 0.154415
0.91 0.15478
0.92 0.155107
0.93 0.155395
0.94 0.155645
0.95 0.155857
0.96 0.156031
0.97 0.156166
0.98 0.156262
0.99 0.15632
1 0.156339

# t=0.9
0 0
0.01 0.00217066
0.02 0.00434078
0.03 0.00650983
0.04 0.00867728
0.05 0.0108426
0.06 0.0130052
0.07 0.0151646
0.08 0.0173203
0.09 0.0194717
0.1 0.0216183
0.11 0.0237596
0.12 0.025895
0.13 0.028024
0.14 0.0301461
0.15 0.0322608
0.16 0.0343675
0.17 0.0364657
0.18 0.0385549
0.19 0.0406346
0.2 0.0427043
0.21 0.0447635
0.22 0.0468116
0.23 0.0488481
0.24 0.0508726
0.25 0.0528846
0.26 0.0548835
0.27 0.0568688
0.28 0.0588402
0.29 0.060797
0.3 0.0627388
0.31 0.0646651
0.32 0.0665755
0.33 0.0684694
0.34 0.0703465
0.35 0.0722062
0.36 0.0740481
0.37 0.0758717
0.38 0.0776766
0.39 0.0794623
0.4 0.0812284
0.41 0.0829745
0.42 0.0847001
0.43 0.0864048
0.44 0.0880882
0.45 0.0897498
0.46 0.0913894
0.47 0.0930063
0.48 0.0946003
0.49 0.096171
0.5 0.0977179
0.51 0.0992408
0.52 0.100739
0.53 0.102213
0.54 0.103661
0.55 0.105084
0.56 0.10648
0.57 0.107851
0.58 0.109195
0.59 0.110512
0.6 0.111801
0.61 0.113063
0.62 0.114298
0.63 0.115504
0.64 0.116681
0.65 0.11783
0.66 0.118949
0.67 0.12004
0.68 0.1211
0.69 0.122131
0.7 0.123132
0.71 0.124102
0.72 0.125042
0.73 0.12595
0.74 0.126828
0.75 0.127675
0.76 0.12849
0.77 0.129273
0.78 0.130024
0.79 0.130743
0.8 0.13143
0.81 0.132085
0.82 0.132707
0.83 0.133296
0.84 0.133852
0.85 0.134376
0.86 0.134866
0.87 0.135323
0.88 0.135746
0.89 0.136136
0.9 0.136493
0.91 0.136815
0.92 0.137104
0.93 0.137359
0.94 0.137581
0.95 0.137768
0.96 0.137921
0.97 0.138041
0.98 0.138126
0.99 0.138177
1 0.138194

# t=0.95
0 0
0.01 0.00191872
0.02 0.00383697
0.03 0.00575428
0.04 0.00767016
0.05 0.00958415
0.06 0.0114958
0.07 0.0134046
0.08 0.0153101
0.09 0.0172118
0.1 0.0191092
0.11 0.021002
0.12 0.0228895
0.13 0.0247714
0.14 0.0266472
0.15 0.0285165
0.16 0.0303787
0.17 0.0322333
0.18 0.0340801
0.19 0.0359184
0.2 0.0377479
0.21 0.0395681
0.22 0.0413784
0.23 0.0431786
0.24 0.0449682
0.25 0.0467466
0.26 0.0485135
0.27 0.0502684
0.28 0.052011
0.29 0.0537407
0.3 0.0554571
0.31 0.0571599
0.32 0.0588485
0.33 0.0605226
0.34 0.0621818
0.35 0.0638257
0.36 0.0654538
0.37 0.0670657
0.38 0.0686612
0.39 0.0702396
0.4 0.0718008
0.41 0.0733442
0.42 0.0748695
0.43 0.0763764
0.44 0.0778644
0.45 0.0793332
0.46 0.0807824
0.47 0.0822117
0.48 0.0836207
0.49 0.0850091
0.5 0.0863765
0.51 0.0877225
0.52 0.089047
0.53 0.0903495
0.54 0.0916296
0.55 0.0928872
0.56 0.0941219
0.57 0.0953333
0.58 0.0965212
0.59 0.0976853
0.6 0.0988253
0.61 0.0999409
0.62 0.101032
0.63 0.102098
0.64 0.103139
0.65 0.104154
0.66 0.105144
0.67 0.106107
0.68 0.107045
0.69 0.107956
0.7 0.108841
0.71 0.109698
0.72 0.110529
0.73 0.111332
0.74 0.112108
0.75 0.112856
0.76 0.113577
0.77 0.114269
0.78 0.114933
0.79 0.115569
0.8 0.116176
0.81 0.116755
0.82 0.117304
0.83 0.117825
0.84 0.118317
0.85 0.11878
0.86 0.119213
0.87 0.119617
0.88 0.119991
0.89 0.120336
0.9 0.120651
0.91 0.120936
0.92 0.121192
0.93 0.121417
0.94 0.121613
0.95 0.121778
0.96 0.121914
0.97 0.122019
0.98 0.122094
0.99 0.12214
1 0.122155

# t=1
0 0
0.01 0.00169603
0.02 0.00339164
0.03 0.00508642
0.04 0.00677993
0.05 0.00847178
0.06 0.0101615
0.07 0.0118488
0.08 0.0135331
0.09 0.0152141
0.1 0.0168913
0.11 0.0185644
0.12 0.0202329
0.13 0.0218964
0.14 0.0235545
0.15 0.0252067
0.16 0.0268528
0.17 0.0284922
0.18 0.0301246
0.19 0.0317496
0.2 0.0333667
0.21 0.0349756
0.22 0.0365759
0.23 0.0381672
0.24 0.039749
0.25 0.041321
0.26 0.0428829
0.27 0.0444341
0.28 0.0459744
0.29 0.0475033
0.3 0.0490206
0.31 0.0505257
0.32 0.0520183
0.33 0.0534982
0.34 0.0549648
0.35 0.0564179
0.36 0.057857
0.37 0.0592819
0.38 0.0606921
0.39 0.0620874
0.4 0.0634673
0.41 0.0648316
0.42 0.0661799
0.43 0.0675119
0.44 0.0688272
0.45 0.0701255
0.46 0.0714065
0.47 0.0726699
0.48 0.0739154
0.49 0.0751426
0.5 0.0763513
0.51 0.0775412
0.52 0.0787119
0.53 0.0798632
0.54 0.0809948
0.55 0.0821064
0.56 0.0831977
0.57 0.0842686
0.58 0.0853186
0.59 0.0863476
0.6 0.0873553
0.61 0.0883414
0.62 0.0893057
0.63 0.090248
0.64 0.091168
0.65 0.0920656
0.66 0.0929404
0.67 0.0937923
0.68 0.094621
0.69 0.0954264
0.7 0.0962083
0.71 0.0969664
0.72 0.0977006
0.73 0.0984106
0.74 0.0990964
0.75 0.0997578
0.76 0.100395
0.77 0.101006
0.78 0.101594
0.79 0.102156
0.8 0.102692
0.81 0.103204
0.82 0.10369
0.83 0.10415
0.84 0.104585
0.85 0.104994
0.86 0.105377
0.87 0.105734
0.88 0.106064
0.89 0.106369
0.9 0.106648
0.91 0.1069
0.92 0.107126
0.93 0.107325
0.94 0.107498
0.95 0.107644
0.96 0.107764
0.97 0.107857
0.98 0.107924
0.99 0.107964
1 0.107977

